Building Networks in R: A Step-by-Step Walkthrough
…
# Build the graph
g3 <- tbl_graph(nodes = nodes_3, edges = edges_3, directed = FALSE)

g3

# A tbl_graph: 8 nodes and 9 edges
#
# An undirected simple graph with 2 components
#
# A tibble: 8 × 2
     id cluster
  <int> <chr>  
1     1 A      
2     2 A      
3     3 A      
4     4 B      
5     5 B      
6     6 B      
# ℹ 2 more rows
#
# A tibble: 9 × 2
   from    to
  <int> <int>
1     1     2
2     1     3
3     2     3
# ℹ 6 more rows
…
# Add one edge from cluster A to cluster B
edges_4 <- edges_3 %>%
  add_row(from = 3, to = 4)

# Build the graph
g4 <- tbl_graph(nodes = nodes_3, edges = edges_4, directed = FALSE)

g4

# A tbl_graph: 8 nodes and 10 edges
#
# An undirected simple graph with 1 component
#
# A tibble: 8 × 2
     id cluster
  <int> <chr>  
1     1 A      
2     2 A      
3     3 A      
4     4 B      
5     5 B      
6     6 B      
# ℹ 2 more rows
#
# A tibble: 10 × 2
   from    to
  <int> <int>
1     1     2
2     1     3
3     2     3
# ℹ 7 more rows
…
Step 5: Introducing Direction

Add arrowheads to show direction. Convert to a directed graph.

# Same edges, but now directed
g5 <- tbl_graph(nodes = nodes_3, edges = edges_4, directed = TRUE)

g5

# A tbl_graph: 8 nodes and 10 edges
#
# A directed acyclic simple graph with 1 component
#
# A tibble: 8 × 2
     id cluster
  <int> <chr>  
1     1 A      
2     2 A      
3     3 A      
4     4 B      
5     5 B      
6     6 B      
# ℹ 2 more rows
#
# A tibble: 10 × 2
   from    to
  <int> <int>
1     1     2
2     1     3
3     2     3
# ℹ 7 more rows
…
